{
  "project_info": {
    "project_number": "746770975500",
    "firebase_url": "https://winnerbill-47457.firebaseio.com",
    "project_id": "winnerbill-47457",
    "storage_bucket": "winnerbill-47457.appspot.com"
  },
  "client": [
    {
      "client_info": {
        "mobilesdk_app_id": "1:746770975500:android:60309b172eab97b6e99729",
        "android_client_info": {
          "package_name": "com.winnerenglish.billmaster"
        }
      },
      "oauth_client": [
        {
          "client_id": "746770975500-meb4b87o29vdft0jhea919mod31uousi.apps.googleusercontent.com",
          "client_type": 3
        }
      ],
      "api_key": [
        {
          "current_key": "AIzaSyBHFM8Cd6N62fNRCLmwFzfXjiT8D9IX1xM"
        }
      ],
      "services": {
        "appinvite_service": {
          "other_platform_oauth_client": [
            {
              "client_id": "746770975500-meb4b87o29vdft0jhea919mod31uousi.apps.googleusercontent.com",
              "client_type": 3
            }
          ]
        }
      }
    }
  ],
  "configuration_version": "1"
}